{
    "openapi": "3.0.0",
    "info": {
        "title": "google Ads API new",
        "contact": {
            "name": "alpha team",
            "email": "arsalani@outlook.com"
        },
        "version": "3.0"
    },
    "paths": {
        "/search/clans": {
            "post": {
                "tags": [
                    "search clans"
                ],
                "operationId": "/clans",
                "parameters": [
                    {
                        "name": "params",
                        "in": "query",
                        "description": "parameters for finding the specific clans params items: name , locationId ,minMembers,maxMembers,limit",
                        "required": true,
                        "schema": {
                            "type": "string",
                            "default": "{'name':'faramarz'}"
                        }
                    }
                ],
                "responses": {
                    "200": {
                        "description": "and structure of the response is json",
                        "content": {
                            "application/json": {}
                        }
                    }
                }
            }
        },
        "/search/clanByTag": {
            "post": {
                "tags": [
                    "search clans"
                ],
                "operationId": "/clanByTag",
                "parameters": [
                    {
                        "name": "tagId",
                        "in": "query",
                        "description": "the tag if of the clan ",
                        "required": true,
                        "schema": {
                            "type": "string",
                            "default": "#20YU29YRR"
                        }
                    }
                ],
                "responses": {
                    "200": {
                        "description": "and structure of the response is json",
                        "content": {
                            "application/json": {}
                        }
                    }
                }
            }
        },
        "/search/clanWarlog": {
            "post": {
                "tags": [
                    "search clans"
                ],
                "operationId": "/clanWarlog",
                "parameters": [
                    {
                        "name": "tagId",
                        "in": "query",
                        "description": "the tag if of the clan ",
                        "required": true,
                        "schema": {
                            "type": "string",
                            "default": "#20YU29YRR"
                        }
                    }
                ],
                "responses": {
                    "200": {
                        "description": "will return the warlog details of the clan",
                        "content": {
                            "application/json": {}
                        }
                    }
                }
            }
        },
        "/search/clanMembers": {
            "post": {
                "tags": [
                    "search clans"
                ],
                "operationId": "/clanMembers",
                "parameters": [
                    {
                        "name": "tagId",
                        "in": "query",
                        "description": "the tag if of the clan ",
                        "required": true,
                        "schema": {
                            "type": "string",
                            "default": "#20YU29YRR"
                        }
                    }
                ],
                "responses": {
                    "200": {
                        "description": "will return the members of the clan",
                        "content": {
                            "application/json": {}
                        }
                    }
                }
            }
        },
        "/search/clanCurrentWar": {
            "post": {
                "tags": [
                    "search clans"
                ],
                "operationId": "/clanCurrentWar",
                "parameters": [
                    {
                        "name": "tagId",
                        "in": "query",
                        "description": "the tag if of the clan ",
                        "required": true,
                        "schema": {
                            "type": "string",
                            "default": "#20YU29YRR"
                        }
                    }
                ],
                "responses": {
                    "200": {
                        "description": "will return the current war of the clan",
                        "content": {
                            "application/json": {}
                        }
                    }
                }
            }
        },
        "/search/player": {
            "post": {
                "tags": [
                    "search players"
                ],
                "operationId": "/player",
                "parameters": [
                    {
                        "name": "playerTag",
                        "in": "query",
                        "description": "the tag id of a player ",
                        "required": true,
                        "schema": {
                            "type": "string",
                            "default": "#8C0VU8YY"
                        }
                    }
                ],
                "responses": {
                    "200": {
                        "description": "will return the details of a player using his or her tag id",
                        "content": {
                            "application/json": {}
                        }
                    }
                }
            }
        },
        "/search/locations": {
            "post": {
                "tags": [
                    "search locations"
                ],
                "operationId": "/locations",
                "parameters": [
                    {
                        "name": "limit",
                        "in": "query",
                        "description": "the limit for the returned response",
                        "required": false,
                        "schema": {
                            "type": "string",
                            "default": "100"
                        }
                    }
                ],
                "responses": {
                    "200": {
                        "description": "will return the list of locations for a game",
                        "content": {
                            "application/json": {}
                        }
                    }
                }
            }
        },
        "/search/locationTopPlayers": {
            "post": {
                "tags": [
                    "search locations"
                ],
                "operationId": "/locationTopPlayers",
                "parameters": [
                    {
                        "name": "locationId",
                        "in": "query",
                        "description": "id of the location",
                        "required": true,
                        "schema": {
                            "type": "string",
                            "default": "100"
                        }
                    }
                ],
                "responses": {
                    "200": {
                        "description": "will return the top players located in a specific location",
                        "content": {
                            "application/json": {}
                        }
                    }
                }
            }
        },
        "/search/locationTopClans": {
            "post": {
                "tags": [
                    "search locations"
                ],
                "operationId": "/locationTopClans",
                "parameters": [
                    {
                        "name": "locationId",
                        "in": "query",
                        "description": "id of the location",
                        "required": true,
                        "schema": {
                            "type": "string",
                            "default": "100"
                        }
                    }
                ],
                "responses": {
                    "200": {
                        "description": "will return the top clans located in a specific location",
                        "content": {
                            "application/json": {}
                        }
                    }
                }
            }
        }
    }
}